{
  "baseScraper": "https://www.placardefutebol.com.br",
  "championships": [
    {
      "name": "Brasileirão Série A",
      "description": "O Campeonato Brasileiro Série A, conhecido como Campeonato Brasileiro, é a primeira divisão do futebol brasileiro disputado entre maio e dezembro. O sorteio da Série A é repleto de confrontos, em que vinte equipes lutam pelo título do Campeonato Brasileiro em trinta e oito rodadas.",
      "division": "Principal",
      "country": {
        "name": "Brasil",
        "flag": "https://gitlab.com/leonardofn/championships/-/raw/main/flags/brasil.png"
      },
      "link": "https://www.placardefutebol.com.br/brasileirao-serie-a"
    },
    {
      "name": "Premier League",
      "description": "A Premier League, também conhecida como Premiership, é a principal competição de futebol da Inglaterra e foi formada em 1992 após o rompimento com a Football League (que foi originalmente fundada em 1888). São vinte clubes envolvidos, todos jogando trinta e oito partidas entre agosto e maio. É, sem dúvida, a liga de futebol mais lucrativa do mundo no momento. Isso atrai investidores de todo o mundo e cada vez mais times obtêm apoio financeiro de fora da Inglaterra, tornando os clubes da Premier League alguns dos mais ricos do mundo.",
      "division": "Principal",
      "country": {
        "name": "Inglaterra",
        "flag": "https://gitlab.com/leonardofn/championships/-/raw/main/flags/reino-unido.jpg"
      },
      "link": "https://www.placardefutebol.com.br/campeonato-ingles"
    },
    {
      "name": "LaLiga",
      "description": "A LaLiga, também conhecida como Primera Division, é a principal liga de futebol profissional da Espanha. A lista de jogos da Primera Division é muito agitada, com os três últimos times sendo rebaixados para a Segunda Division, de onde os três primeiros são promovidos à LaLiga. É extremamente difícil para os três estreantes se manterem no alto e eles começam a nova temporada com as menores chances da Primera Division de serem rebaixados.",
      "division": "Principal",
      "country": {
        "name": "Espanha",
        "flag": "https://gitlab.com/leonardofn/championships/-/raw/main/flags/espanha.png"
      },
      "link": "https://www.placardefutebol.com.br/campeonato-espanhol"
    },
    {
      "name": "Bundesliga",
      "description": "Bundesliga é a principal liga de futebol profissional da Alemanha. A Bundesliga é uma das cinco principais ligas da Europa e sua lista de jogos da Bundesliga é muito popular em todo o mundo. A temporada da Bundesliga começa no início de agosto e vai até o final de maio, com uma pausa no inverno de seis semanas. Cada equipe da Bundesliga deve ter uma licença para participar do sorteio da Bundesliga.",
      "division": "Principal",
      "country": {
        "name": "Alemanha",
        "flag": "https://gitlab.com/leonardofn/championships/-/raw/main/flags/alemanha.png"
      },
      "link": "https://www.placardefutebol.com.br/campeonato-alemao"
    },
    {
      "name": "Serie A",
      "description": "A Serie A é a principal liga profissional de futebol da Itália. A Serie A é realizado em um formato 'Todos Contra Todos', com todas as vinte equipes jogando dezenove partidas na primeira metade da temporada e os jogos de volta na segunda. Isso garante que a lista de jogos da Serie A seja bastante simples de seguir. As três últimas equipes da Série A são rebaixadas para a Serie B, enquanto os três primeiros dessa divisão são promovidos para a Serie A.",
      "division": "Principal",
      "country": {
        "name": "Itália",
        "flag": "https://gitlab.com/leonardofn/championships/-/raw/main/flags/italia.png"
      },
      "link": "https://www.placardefutebol.com.br/campeonato-italiano"
    },
    {
      "name": "Ligue 1",
      "description": "A Ligue 1, anteriormente conhecida como France Première Division ou France Division 1, é a principal liga de futebol profissional da França. As 20 equipes da Ligue 1 jogam entre si duas vezes (em casa e fora) durante a temporada em um calendário de 38 jogos da Ligue 1. As três últimas equipes da divisão são rebaixadas para a Ligue 2. Elas são substituídas pelas três melhores equipes da Ligue 2 e, normalmente, começam a nova temporada como as favoritas para cair novamente.",
      "division": "Principal",
      "country": {
        "name": "França",
        "flag": "https://gitlab.com/leonardofn/championships/-/raw/main/flags/franca.png"
      },
      "link": "https://www.placardefutebol.com.br/campeonato-frances"
    }
  ]
}
